<?xml version="1.0" encoding="utf-8"?>
<COLLADA xmlns="http://www.collada.org/2005/11/COLLADASchema" version="1.4.1" xmlns:xsi="http://www.w3.org/2001/XMLSchema-instance">
  <asset>
    <contributor>
      <author>Blender User</author>
      <authoring_tool>Blender 2.92.0 commit date:2021-02-24, commit time:16:25, hash:02948a2cab44</authoring_tool>
    </contributor>
    <created>2021-04-09T10:01:14</created>
    <modified>2021-04-09T10:01:14</modified>
    <unit name="meter" meter="1"/>
    <up_axis>Z_UP</up_axis>
  </asset>
  <library_cameras>
    <camera id="Camera-camera" name="Camera">
      <optics>
        <technique_common>
          <perspective>
            <xfov sid="xfov">39.59775</xfov>
            <aspect_ratio>1.777778</aspect_ratio>
            <znear sid="znear">0.1</znear>
            <zfar sid="zfar">100</zfar>
          </perspective>
        </technique_common>
      </optics>
      <extra>
        <technique profile="blender">
          <shiftx sid="shiftx" type="float">0</shiftx>
          <shifty sid="shifty" type="float">0</shifty>
          <dof_distance sid="dof_distance" type="float">10</dof_distance>
        </technique>
      </extra>
    </camera>
  </library_cameras>
  <library_lights>
    <light id="Light-light" name="Light">
      <technique_common>
        <point>
          <color sid="color">1000 1000 1000</color>
          <constant_attenuation>1</constant_attenuation>
          <linear_attenuation>0</linear_attenuation>
          <quadratic_attenuation>0.00111109</quadratic_attenuation>
        </point>
      </technique_common>
      <extra>
        <technique profile="blender">
          <type sid="type" type="int">0</type>
          <flag sid="flag" type="int">0</flag>
          <mode sid="mode" type="int">1</mode>
          <gamma sid="blender_gamma" type="float">1</gamma>
          <red sid="red" type="float">1</red>
          <green sid="green" type="float">1</green>
          <blue sid="blue" type="float">1</blue>
          <shadow_r sid="blender_shadow_r" type="float">0</shadow_r>
          <shadow_g sid="blender_shadow_g" type="float">0</shadow_g>
          <shadow_b sid="blender_shadow_b" type="float">0</shadow_b>
          <energy sid="blender_energy" type="float">1000</energy>
          <dist sid="blender_dist" type="float">29.99998</dist>
          <spotsize sid="spotsize" type="float">75</spotsize>
          <spotblend sid="spotblend" type="float">0.15</spotblend>
          <att1 sid="att1" type="float">0</att1>
          <att2 sid="att2" type="float">1</att2>
          <falloff_type sid="falloff_type" type="int">2</falloff_type>
          <clipsta sid="clipsta" type="float">0.04999995</clipsta>
          <clipend sid="clipend" type="float">30.002</clipend>
          <bias sid="bias" type="float">1</bias>
          <soft sid="soft" type="float">3</soft>
          <bufsize sid="bufsize" type="int">2880</bufsize>
          <samp sid="samp" type="int">3</samp>
          <buffers sid="buffers" type="int">1</buffers>
          <area_shape sid="area_shape" type="int">1</area_shape>
          <area_size sid="area_size" type="float">0.1</area_size>
          <area_sizey sid="area_sizey" type="float">0.1</area_sizey>
          <area_sizez sid="area_sizez" type="float">1</area_sizez>
        </technique>
      </extra>
    </light>
  </library_lights>
  <library_effects>
    <effect id="base_005-effect">
      <profile_COMMON>
        <technique sid="common">
          <lambert>
            <emission>
              <color sid="emission">0 0 0 1</color>
            </emission>
            <diffuse>
              <color sid="diffuse">0.2882961 0.2882961 0.2882961 1</color>
            </diffuse>
            <index_of_refraction>
              <float sid="ior">1.45</float>
            </index_of_refraction>
          </lambert>
        </technique>
      </profile_COMMON>
    </effect>
    <effect id="base_004-effect">
      <profile_COMMON>
        <technique sid="common">
          <lambert>
            <emission>
              <color sid="emission">0 0 0 1</color>
            </emission>
            <diffuse>
              <color sid="diffuse">0.2882961 0.2882961 0.2882961 1</color>
            </diffuse>
            <index_of_refraction>
              <float sid="ior">1.45</float>
            </index_of_refraction>
          </lambert>
        </technique>
      </profile_COMMON>
    </effect>
    <effect id="base_003-effect">
      <profile_COMMON>
        <technique sid="common">
          <lambert>
            <emission>
              <color sid="emission">0 0 0 1</color>
            </emission>
            <diffuse>
              <color sid="diffuse">0.2882961 0.2882961 0.2882961 1</color>
            </diffuse>
            <index_of_refraction>
              <float sid="ior">1.45</float>
            </index_of_refraction>
          </lambert>
        </technique>
      </profile_COMMON>
    </effect>
    <effect id="sides_003-effect">
      <profile_COMMON>
        <technique sid="common">
          <lambert>
            <emission>
              <color sid="emission">0 0 0 1</color>
            </emission>
            <diffuse>
              <color sid="diffuse">0 0.08270703 0.2019009 1</color>
            </diffuse>
            <index_of_refraction>
              <float sid="ior">1.45</float>
            </index_of_refraction>
          </lambert>
        </technique>
      </profile_COMMON>
    </effect>
    <effect id="base_002-effect">
      <profile_COMMON>
        <technique sid="common">
          <lambert>
            <emission>
              <color sid="emission">0 0 0 1</color>
            </emission>
            <diffuse>
              <color sid="diffuse">0.2882961 0.2882961 0.2882961 1</color>
            </diffuse>
            <index_of_refraction>
              <float sid="ior">1.45</float>
            </index_of_refraction>
          </lambert>
        </technique>
      </profile_COMMON>
    </effect>
    <effect id="sides_002-effect">
      <profile_COMMON>
        <technique sid="common">
          <lambert>
            <emission>
              <color sid="emission">0 0 0 1</color>
            </emission>
            <diffuse>
              <color sid="diffuse">0 0.08270703 0.2019009 1</color>
            </diffuse>
            <index_of_refraction>
              <float sid="ior">1.45</float>
            </index_of_refraction>
          </lambert>
        </technique>
      </profile_COMMON>
    </effect>
    <effect id="base_001-effect">
      <profile_COMMON>
        <technique sid="common">
          <lambert>
            <emission>
              <color sid="emission">0 0 0 1</color>
            </emission>
            <diffuse>
              <color sid="diffuse">0.2882961 0.2882961 0.2882961 1</color>
            </diffuse>
            <index_of_refraction>
              <float sid="ior">1.45</float>
            </index_of_refraction>
          </lambert>
        </technique>
      </profile_COMMON>
    </effect>
    <effect id="sides_001-effect">
      <profile_COMMON>
        <technique sid="common">
          <lambert>
            <emission>
              <color sid="emission">0 0 0 1</color>
            </emission>
            <diffuse>
              <color sid="diffuse">0 0.08270703 0.2019009 1</color>
            </diffuse>
            <index_of_refraction>
              <float sid="ior">1.45</float>
            </index_of_refraction>
          </lambert>
        </technique>
      </profile_COMMON>
    </effect>
    <effect id="base-effect">
      <profile_COMMON>
        <technique sid="common">
          <lambert>
            <emission>
              <color sid="emission">0 0 0 1</color>
            </emission>
            <diffuse>
              <color sid="diffuse">0.2882961 0.2882961 0.2882961 1</color>
            </diffuse>
            <index_of_refraction>
              <float sid="ior">1.45</float>
            </index_of_refraction>
          </lambert>
        </technique>
      </profile_COMMON>
    </effect>
    <effect id="sides-effect">
      <profile_COMMON>
        <technique sid="common">
          <lambert>
            <emission>
              <color sid="emission">0 0 0 1</color>
            </emission>
            <diffuse>
              <color sid="diffuse">0 0.08270703 0.2019009 1</color>
            </diffuse>
            <index_of_refraction>
              <float sid="ior">1.45</float>
            </index_of_refraction>
          </lambert>
        </technique>
      </profile_COMMON>
    </effect>
  </library_effects>
  <library_images/>
  <library_materials>
    <material id="base_005-material" name="base.005">
      <instance_effect url="#base_005-effect"/>
    </material>
    <material id="base_004-material" name="base.004">
      <instance_effect url="#base_004-effect"/>
    </material>
    <material id="base_003-material" name="base.003">
      <instance_effect url="#base_003-effect"/>
    </material>
    <material id="sides_003-material" name="sides.003">
      <instance_effect url="#sides_003-effect"/>
    </material>
    <material id="base_002-material" name="base.002">
      <instance_effect url="#base_002-effect"/>
    </material>
    <material id="sides_002-material" name="sides.002">
      <instance_effect url="#sides_002-effect"/>
    </material>
    <material id="base_001-material" name="base.001">
      <instance_effect url="#base_001-effect"/>
    </material>
    <material id="sides_001-material" name="sides.001">
      <instance_effect url="#sides_001-effect"/>
    </material>
    <material id="base-material" name="base">
      <instance_effect url="#base-effect"/>
    </material>
    <material id="sides-material" name="sides">
      <instance_effect url="#sides-effect"/>
    </material>
  </library_materials>
  <library_geometries>
    <geometry id="Cube_010-mesh" name="Cube.010">
      <mesh>
        <source id="Cube_010-mesh-positions">
          <float_array id="Cube_010-mesh-positions-array" count="24">1 1 1 1 1 -1 1 -1 1 1 -1 -1 -1 1 1 -1 1 -1 -1 -1 1 -1 -1 -1</float_array>
          <technique_common>
            <accessor source="#Cube_010-mesh-positions-array" count="8" stride="3">
              <param name="X" type="float"/>
              <param name="Y" type="float"/>
              <param name="Z" type="float"/>
            </accessor>
          </technique_common>
        </source>
        <source id="Cube_010-mesh-normals">
          <float_array id="Cube_010-mesh-normals-array" count="18">0 0 1 0 -1 0 -1 0 0 0 0 -1 1 0 0 0 1 0</float_array>
          <technique_common>
            <accessor source="#Cube_010-mesh-normals-array" count="6" stride="3">
              <param name="X" type="float"/>
              <param name="Y" type="float"/>
              <param name="Z" type="float"/>
            </accessor>
          </technique_common>
        </source>
        <source id="Cube_010-mesh-map-0">
          <float_array id="Cube_010-mesh-map-0-array" count="72">0.875 0.5 0.625 0.75 0.625 0.5 0.625 0.75 0.375 1 0.375 0.75 0.625 0 0.375 0.25 0.375 0 0.375 0.5 0.125 0.75 0.125 0.5 0.625 0.5 0.375 0.75 0.375 0.5 0.625 0.25 0.375 0.5 0.375 0.25 0.875 0.5 0.875 0.75 0.625 0.75 0.625 0.75 0.625 1 0.375 1 0.625 0 0.625 0.25 0.375 0.25 0.375 0.5 0.375 0.75 0.125 0.75 0.625 0.5 0.625 0.75 0.375 0.75 0.625 0.25 0.625 0.5 0.375 0.5</float_array>
          <technique_common>
            <accessor source="#Cube_010-mesh-map-0-array" count="36" stride="2">
              <param name="S" type="float"/>
              <param name="T" type="float"/>
            </accessor>
          </technique_common>
        </source>
        <vertices id="Cube_010-mesh-vertices">
          <input semantic="POSITION" source="#Cube_010-mesh-positions"/>
        </vertices>
        <triangles material="base_005-material" count="12">
          <input semantic="VERTEX" source="#Cube_010-mesh-vertices" offset="0"/>
          <input semantic="NORMAL" source="#Cube_010-mesh-normals" offset="1"/>
          <input semantic="TEXCOORD" source="#Cube_010-mesh-map-0" offset="2" set="0"/>
          <p>4 0 0 2 0 1 0 0 2 2 1 3 7 1 4 3 1 5 6 2 6 5 2 7 7 2 8 1 3 9 7 3 10 5 3 11 0 4 12 3 4 13 1 4 14 4 5 15 1 5 16 5 5 17 4 0 18 6 0 19 2 0 20 2 1 21 6 1 22 7 1 23 6 2 24 4 2 25 5 2 26 1 3 27 3 3 28 7 3 29 0 4 30 2 4 31 3 4 32 4 5 33 0 5 34 1 5 35</p>
        </triangles>
      </mesh>
    </geometry>
    <geometry id="Cube_009-mesh" name="Cube.009">
      <mesh>
        <source id="Cube_009-mesh-positions">
          <float_array id="Cube_009-mesh-positions-array" count="24">1 1 1 1 1 -1 1 -1 1 1 -1 -1 -1 1 1 -1 1 -1 -1 -1 1 -1 -1 -1</float_array>
          <technique_common>
            <accessor source="#Cube_009-mesh-positions-array" count="8" stride="3">
              <param name="X" type="float"/>
              <param name="Y" type="float"/>
              <param name="Z" type="float"/>
            </accessor>
          </technique_common>
        </source>
        <source id="Cube_009-mesh-normals">
          <float_array id="Cube_009-mesh-normals-array" count="18">0 0 1 0 -1 0 -1 0 0 0 0 -1 1 0 0 0 1 0</float_array>
          <technique_common>
            <accessor source="#Cube_009-mesh-normals-array" count="6" stride="3">
              <param name="X" type="float"/>
              <param name="Y" type="float"/>
              <param name="Z" type="float"/>
            </accessor>
          </technique_common>
        </source>
        <source id="Cube_009-mesh-map-0">
          <float_array id="Cube_009-mesh-map-0-array" count="72">0.875 0.5 0.625 0.75 0.625 0.5 0.625 0.75 0.375 1 0.375 0.75 0.625 0 0.375 0.25 0.375 0 0.375 0.5 0.125 0.75 0.125 0.5 0.625 0.5 0.375 0.75 0.375 0.5 0.625 0.25 0.375 0.5 0.375 0.25 0.875 0.5 0.875 0.75 0.625 0.75 0.625 0.75 0.625 1 0.375 1 0.625 0 0.625 0.25 0.375 0.25 0.375 0.5 0.375 0.75 0.125 0.75 0.625 0.5 0.625 0.75 0.375 0.75 0.625 0.25 0.625 0.5 0.375 0.5</float_array>
          <technique_common>
            <accessor source="#Cube_009-mesh-map-0-array" count="36" stride="2">
              <param name="S" type="float"/>
              <param name="T" type="float"/>
            </accessor>
          </technique_common>
        </source>
        <vertices id="Cube_009-mesh-vertices">
          <input semantic="POSITION" source="#Cube_009-mesh-positions"/>
        </vertices>
        <triangles material="base_004-material" count="12">
          <input semantic="VERTEX" source="#Cube_009-mesh-vertices" offset="0"/>
          <input semantic="NORMAL" source="#Cube_009-mesh-normals" offset="1"/>
          <input semantic="TEXCOORD" source="#Cube_009-mesh-map-0" offset="2" set="0"/>
          <p>4 0 0 2 0 1 0 0 2 2 1 3 7 1 4 3 1 5 6 2 6 5 2 7 7 2 8 1 3 9 7 3 10 5 3 11 0 4 12 3 4 13 1 4 14 4 5 15 1 5 16 5 5 17 4 0 18 6 0 19 2 0 20 2 1 21 6 1 22 7 1 23 6 2 24 4 2 25 5 2 26 1 3 27 3 3 28 7 3 29 0 4 30 2 4 31 3 4 32 4 5 33 0 5 34 1 5 35</p>
        </triangles>
      </mesh>
    </geometry>
    <geometry id="Cube_008-mesh" name="Cube.008">
      <mesh>
        <source id="Cube_008-mesh-positions">
          <float_array id="Cube_008-mesh-positions-array" count="24">1 1 1 0.9905748 0.9261613 -1 1 -1 1 0.9905748 -0.921312 -1 -1 1 1 -0.9898055 0.9261613 -1 -1 -1 1 -0.9898055 -0.921312 -1</float_array>
          <technique_common>
            <accessor source="#Cube_008-mesh-positions-array" count="8" stride="3">
              <param name="X" type="float"/>
              <param name="Y" type="float"/>
              <param name="Z" type="float"/>
            </accessor>
          </technique_common>
        </source>
        <source id="Cube_008-mesh-normals">
          <float_array id="Cube_008-mesh-normals-array" count="30">0 0 1 0 -0.9992269 -0.03931355 -0.9999871 0 -0.00509715 0 0 -1 0.9999889 0 -0.004712522 0 0.9993193 -0.03689414 0 -0.9992269 -0.03931355 -0.999987 0 -0.00509715 0.9999889 0 -0.004712522 0 0.9993192 -0.03689426</float_array>
          <technique_common>
            <accessor source="#Cube_008-mesh-normals-array" count="10" stride="3">
              <param name="X" type="float"/>
              <param name="Y" type="float"/>
              <param name="Z" type="float"/>
            </accessor>
          </technique_common>
        </source>
        <source id="Cube_008-mesh-map-0">
          <float_array id="Cube_008-mesh-map-0-array" count="72">0.875 0.5 0.625 0.75 0.625 0.5 0.625 0.75 0.375 1 0.375 0.75 0.375 0 0.625 0.25 0.375 0.25 0.375 0.5 0.125 0.75 0.125 0.5 0.625 0.5 0.375 0.75 0.375 0.5 0.375 0.25 0.625 0.5 0.375 0.5 0.875 0.5 0.875 0.75 0.625 0.75 0.625 0.75 0.625 1 0.375 1 0.375 0 0.625 0 0.625 0.25 0.375 0.5 0.375 0.75 0.125 0.75 0.625 0.5 0.625 0.75 0.375 0.75 0.375 0.25 0.625 0.25 0.625 0.5</float_array>
          <technique_common>
            <accessor source="#Cube_008-mesh-map-0-array" count="36" stride="2">
              <param name="S" type="float"/>
              <param name="T" type="float"/>
            </accessor>
          </technique_common>
        </source>
        <vertices id="Cube_008-mesh-vertices">
          <input semantic="POSITION" source="#Cube_008-mesh-positions"/>
        </vertices>
        <triangles material="base_003-material" count="4">
          <input semantic="VERTEX" source="#Cube_008-mesh-vertices" offset="0"/>
          <input semantic="NORMAL" source="#Cube_008-mesh-normals" offset="1"/>
          <input semantic="TEXCOORD" source="#Cube_008-mesh-map-0" offset="2" set="0"/>
          <p>4 0 0 2 0 1 0 0 2 1 3 9 7 3 10 5 3 11 4 0 18 6 0 19 2 0 20 1 3 27 3 3 28 7 3 29</p>
        </triangles>
        <triangles material="sides_003-material" count="8">
          <input semantic="VERTEX" source="#Cube_008-mesh-vertices" offset="0"/>
          <input semantic="NORMAL" source="#Cube_008-mesh-normals" offset="1"/>
          <input semantic="TEXCOORD" source="#Cube_008-mesh-map-0" offset="2" set="0"/>
          <p>2 1 3 7 1 4 3 1 5 7 2 6 4 2 7 5 2 8 0 4 12 3 4 13 1 4 14 5 5 15 0 5 16 1 5 17 2 6 21 6 6 22 7 6 23 7 7 24 6 7 25 4 7 26 0 8 30 2 8 31 3 8 32 5 9 33 4 9 34 0 9 35</p>
        </triangles>
      </mesh>
    </geometry>
    <geometry id="Cube_007-mesh" name="Cube.007">
      <mesh>
        <source id="Cube_007-mesh-positions">
          <float_array id="Cube_007-mesh-positions-array" count="24">1 1 1 0.9905748 0.9261613 -1 1 -1 1 0.9905748 -0.921312 -1 -1 1 1 -0.9898055 0.9261613 -1 -1 -1 1 -0.9898055 -0.921312 -1</float_array>
          <technique_common>
            <accessor source="#Cube_007-mesh-positions-array" count="8" stride="3">
              <param name="X" type="float"/>
              <param name="Y" type="float"/>
              <param name="Z" type="float"/>
            </accessor>
          </technique_common>
        </source>
        <source id="Cube_007-mesh-normals">
          <float_array id="Cube_007-mesh-normals-array" count="30">0 0 1 0 -0.9992269 -0.03931355 -0.9999871 0 -0.00509715 0 0 -1 0.9999889 0 -0.004712522 0 0.9993193 -0.03689414 0 -0.9992269 -0.03931355 -0.999987 0 -0.00509715 0.9999889 0 -0.004712522 0 0.9993192 -0.03689426</float_array>
          <technique_common>
            <accessor source="#Cube_007-mesh-normals-array" count="10" stride="3">
              <param name="X" type="float"/>
              <param name="Y" type="float"/>
              <param name="Z" type="float"/>
            </accessor>
          </technique_common>
        </source>
        <source id="Cube_007-mesh-map-0">
          <float_array id="Cube_007-mesh-map-0-array" count="72">0.875 0.5 0.625 0.75 0.625 0.5 0.625 0.75 0.375 1 0.375 0.75 0.375 0 0.625 0.25 0.375 0.25 0.375 0.5 0.125 0.75 0.125 0.5 0.625 0.5 0.375 0.75 0.375 0.5 0.375 0.25 0.625 0.5 0.375 0.5 0.875 0.5 0.875 0.75 0.625 0.75 0.625 0.75 0.625 1 0.375 1 0.375 0 0.625 0 0.625 0.25 0.375 0.5 0.375 0.75 0.125 0.75 0.625 0.5 0.625 0.75 0.375 0.75 0.375 0.25 0.625 0.25 0.625 0.5</float_array>
          <technique_common>
            <accessor source="#Cube_007-mesh-map-0-array" count="36" stride="2">
              <param name="S" type="float"/>
              <param name="T" type="float"/>
            </accessor>
          </technique_common>
        </source>
        <vertices id="Cube_007-mesh-vertices">
          <input semantic="POSITION" source="#Cube_007-mesh-positions"/>
        </vertices>
        <triangles material="base_002-material" count="4">
          <input semantic="VERTEX" source="#Cube_007-mesh-vertices" offset="0"/>
          <input semantic="NORMAL" source="#Cube_007-mesh-normals" offset="1"/>
          <input semantic="TEXCOORD" source="#Cube_007-mesh-map-0" offset="2" set="0"/>
          <p>4 0 0 2 0 1 0 0 2 1 3 9 7 3 10 5 3 11 4 0 18 6 0 19 2 0 20 1 3 27 3 3 28 7 3 29</p>
        </triangles>
        <triangles material="sides_002-material" count="8">
          <input semantic="VERTEX" source="#Cube_007-mesh-vertices" offset="0"/>
          <input semantic="NORMAL" source="#Cube_007-mesh-normals" offset="1"/>
          <input semantic="TEXCOORD" source="#Cube_007-mesh-map-0" offset="2" set="0"/>
          <p>2 1 3 7 1 4 3 1 5 7 2 6 4 2 7 5 2 8 0 4 12 3 4 13 1 4 14 5 5 15 0 5 16 1 5 17 2 6 21 6 6 22 7 6 23 7 7 24 6 7 25 4 7 26 0 8 30 2 8 31 3 8 32 5 9 33 4 9 34 0 9 35</p>
        </triangles>
      </mesh>
    </geometry>
    <geometry id="Cube_006-mesh" name="Cube.006">
      <mesh>
        <source id="Cube_006-mesh-positions">
          <float_array id="Cube_006-mesh-positions-array" count="24">1 1 1 0.9905748 0.9261613 -1 1 -1 1 0.9905748 -0.921312 -1 -1 1 1 -0.9898055 0.9261613 -1 -1 -1 1 -0.9898055 -0.921312 -1</float_array>
          <technique_common>
            <accessor source="#Cube_006-mesh-positions-array" count="8" stride="3">
              <param name="X" type="float"/>
              <param name="Y" type="float"/>
              <param name="Z" type="float"/>
            </accessor>
          </technique_common>
        </source>
        <source id="Cube_006-mesh-normals">
          <float_array id="Cube_006-mesh-normals-array" count="30">0 0 1 0 -0.9992269 -0.03931355 -0.9999871 0 -0.00509715 0 0 -1 0.9999889 0 -0.004712522 0 0.9993193 -0.03689414 0 -0.9992269 -0.03931355 -0.999987 0 -0.00509715 0.9999889 0 -0.004712522 0 0.9993192 -0.03689426</float_array>
          <technique_common>
            <accessor source="#Cube_006-mesh-normals-array" count="10" stride="3">
              <param name="X" type="float"/>
              <param name="Y" type="float"/>
              <param name="Z" type="float"/>
            </accessor>
          </technique_common>
        </source>
        <source id="Cube_006-mesh-map-0">
          <float_array id="Cube_006-mesh-map-0-array" count="72">0.875 0.5 0.625 0.75 0.625 0.5 0.625 0.75 0.375 1 0.375 0.75 0.375 0 0.625 0.25 0.375 0.25 0.375 0.5 0.125 0.75 0.125 0.5 0.625 0.5 0.375 0.75 0.375 0.5 0.375 0.25 0.625 0.5 0.375 0.5 0.875 0.5 0.875 0.75 0.625 0.75 0.625 0.75 0.625 1 0.375 1 0.375 0 0.625 0 0.625 0.25 0.375 0.5 0.375 0.75 0.125 0.75 0.625 0.5 0.625 0.75 0.375 0.75 0.375 0.25 0.625 0.25 0.625 0.5</float_array>
          <technique_common>
            <accessor source="#Cube_006-mesh-map-0-array" count="36" stride="2">
              <param name="S" type="float"/>
              <param name="T" type="float"/>
            </accessor>
          </technique_common>
        </source>
        <vertices id="Cube_006-mesh-vertices">
          <input semantic="POSITION" source="#Cube_006-mesh-positions"/>
        </vertices>
        <triangles material="base_001-material" count="4">
          <input semantic="VERTEX" source="#Cube_006-mesh-vertices" offset="0"/>
          <input semantic="NORMAL" source="#Cube_006-mesh-normals" offset="1"/>
          <input semantic="TEXCOORD" source="#Cube_006-mesh-map-0" offset="2" set="0"/>
          <p>4 0 0 2 0 1 0 0 2 1 3 9 7 3 10 5 3 11 4 0 18 6 0 19 2 0 20 1 3 27 3 3 28 7 3 29</p>
        </triangles>
        <triangles material="sides_001-material" count="8">
          <input semantic="VERTEX" source="#Cube_006-mesh-vertices" offset="0"/>
          <input semantic="NORMAL" source="#Cube_006-mesh-normals" offset="1"/>
          <input semantic="TEXCOORD" source="#Cube_006-mesh-map-0" offset="2" set="0"/>
          <p>2 1 3 7 1 4 3 1 5 7 2 6 4 2 7 5 2 8 0 4 12 3 4 13 1 4 14 5 5 15 0 5 16 1 5 17 2 6 21 6 6 22 7 6 23 7 7 24 6 7 25 4 7 26 0 8 30 2 8 31 3 8 32 5 9 33 4 9 34 0 9 35</p>
        </triangles>
      </mesh>
    </geometry>
    <geometry id="Cube_005-mesh" name="Cube.005">
      <mesh>
        <source id="Cube_005-mesh-positions">
          <float_array id="Cube_005-mesh-positions-array" count="24">1 1 1 0.9905748 0.9261613 -1 1 -1 1 0.9905748 -0.921312 -1 -1 1 1 -0.9898055 0.9261613 -1 -1 -1 1 -0.9898055 -0.921312 -1</float_array>
          <technique_common>
            <accessor source="#Cube_005-mesh-positions-array" count="8" stride="3">
              <param name="X" type="float"/>
              <param name="Y" type="float"/>
              <param name="Z" type="float"/>
            </accessor>
          </technique_common>
        </source>
        <source id="Cube_005-mesh-normals">
          <float_array id="Cube_005-mesh-normals-array" count="30">0 0 1 0 -0.9992269 -0.03931355 -0.9999871 0 -0.00509715 0 0 -1 0.9999889 0 -0.004712522 0 0.9993193 -0.03689414 0 -0.9992269 -0.03931355 -0.999987 0 -0.00509715 0.9999889 0 -0.004712522 0 0.9993192 -0.03689426</float_array>
          <technique_common>
            <accessor source="#Cube_005-mesh-normals-array" count="10" stride="3">
              <param name="X" type="float"/>
              <param name="Y" type="float"/>
              <param name="Z" type="float"/>
            </accessor>
          </technique_common>
        </source>
        <source id="Cube_005-mesh-map-0">
          <float_array id="Cube_005-mesh-map-0-array" count="72">0.875 0.5 0.625 0.75 0.625 0.5 0.625 0.75 0.375 1 0.375 0.75 0.375 0 0.625 0.25 0.375 0.25 0.375 0.5 0.125 0.75 0.125 0.5 0.625 0.5 0.375 0.75 0.375 0.5 0.375 0.25 0.625 0.5 0.375 0.5 0.875 0.5 0.875 0.75 0.625 0.75 0.625 0.75 0.625 1 0.375 1 0.375 0 0.625 0 0.625 0.25 0.375 0.5 0.375 0.75 0.125 0.75 0.625 0.5 0.625 0.75 0.375 0.75 0.375 0.25 0.625 0.25 0.625 0.5</float_array>
          <technique_common>
            <accessor source="#Cube_005-mesh-map-0-array" count="36" stride="2">
              <param name="S" type="float"/>
              <param name="T" type="float"/>
            </accessor>
          </technique_common>
        </source>
        <vertices id="Cube_005-mesh-vertices">
          <input semantic="POSITION" source="#Cube_005-mesh-positions"/>
        </vertices>
        <triangles material="base-material" count="4">
          <input semantic="VERTEX" source="#Cube_005-mesh-vertices" offset="0"/>
          <input semantic="NORMAL" source="#Cube_005-mesh-normals" offset="1"/>
          <input semantic="TEXCOORD" source="#Cube_005-mesh-map-0" offset="2" set="0"/>
          <p>4 0 0 2 0 1 0 0 2 1 3 9 7 3 10 5 3 11 4 0 18 6 0 19 2 0 20 1 3 27 3 3 28 7 3 29</p>
        </triangles>
        <triangles material="sides-material" count="8">
          <input semantic="VERTEX" source="#Cube_005-mesh-vertices" offset="0"/>
          <input semantic="NORMAL" source="#Cube_005-mesh-normals" offset="1"/>
          <input semantic="TEXCOORD" source="#Cube_005-mesh-map-0" offset="2" set="0"/>
          <p>2 1 3 7 1 4 3 1 5 7 2 6 4 2 7 5 2 8 0 4 12 3 4 13 1 4 14 5 5 15 0 5 16 1 5 17 2 6 21 6 6 22 7 6 23 7 7 24 6 7 25 4 7 26 0 8 30 2 8 31 3 8 32 5 9 33 4 9 34 0 9 35</p>
        </triangles>
      </mesh>
    </geometry>
    <geometry id="Cube_004-mesh" name="Cube.004">
      <mesh>
        <source id="Cube_004-mesh-positions">
          <float_array id="Cube_004-mesh-positions-array" count="24">1 1 1 1 1 -1 1 -1 1 1 -1 -1 -1 1 1 -1 1 -1 -1 -1 1 -1 -1 -1</float_array>
          <technique_common>
            <accessor source="#Cube_004-mesh-positions-array" count="8" stride="3">
              <param name="X" type="float"/>
              <param name="Y" type="float"/>
              <param name="Z" type="float"/>
            </accessor>
          </technique_common>
        </source>
        <source id="Cube_004-mesh-normals">
          <float_array id="Cube_004-mesh-normals-array" count="18">0 0 1 0 -1 0 -1 0 0 0 0 -1 1 0 0 0 1 0</float_array>
          <technique_common>
            <accessor source="#Cube_004-mesh-normals-array" count="6" stride="3">
              <param name="X" type="float"/>
              <param name="Y" type="float"/>
              <param name="Z" type="float"/>
            </accessor>
          </technique_common>
        </source>
        <source id="Cube_004-mesh-map-0">
          <float_array id="Cube_004-mesh-map-0-array" count="72">0.875 0.5 0.625 0.75 0.625 0.5 0.625 0.75 0.375 1 0.375 0.75 0.625 0 0.375 0.25 0.375 0 0.375 0.5 0.125 0.75 0.125 0.5 0.625 0.5 0.375 0.75 0.375 0.5 0.625 0.25 0.375 0.5 0.375 0.25 0.875 0.5 0.875 0.75 0.625 0.75 0.625 0.75 0.625 1 0.375 1 0.625 0 0.625 0.25 0.375 0.25 0.375 0.5 0.375 0.75 0.125 0.75 0.625 0.5 0.625 0.75 0.375 0.75 0.625 0.25 0.625 0.5 0.375 0.5</float_array>
          <technique_common>
            <accessor source="#Cube_004-mesh-map-0-array" count="36" stride="2">
              <param name="S" type="float"/>
              <param name="T" type="float"/>
            </accessor>
          </technique_common>
        </source>
        <vertices id="Cube_004-mesh-vertices">
          <input semantic="POSITION" source="#Cube_004-mesh-positions"/>
        </vertices>
        <triangles material="base-material" count="12">
          <input semantic="VERTEX" source="#Cube_004-mesh-vertices" offset="0"/>
          <input semantic="NORMAL" source="#Cube_004-mesh-normals" offset="1"/>
          <input semantic="TEXCOORD" source="#Cube_004-mesh-map-0" offset="2" set="0"/>
          <p>4 0 0 2 0 1 0 0 2 2 1 3 7 1 4 3 1 5 6 2 6 5 2 7 7 2 8 1 3 9 7 3 10 5 3 11 0 4 12 3 4 13 1 4 14 4 5 15 1 5 16 5 5 17 4 0 18 6 0 19 2 0 20 2 1 21 6 1 22 7 1 23 6 2 24 4 2 25 5 2 26 1 3 27 3 3 28 7 3 29 0 4 30 2 4 31 3 4 32 4 5 33 0 5 34 1 5 35</p>
        </triangles>
      </mesh>
    </geometry>
    <geometry id="Cube-mesh" name="Cube">
      <mesh>
        <source id="Cube-mesh-positions">
          <float_array id="Cube-mesh-positions-array" count="120">1 0.9030262 0.5836485 1 0.9030262 -0.9687239 0.9759283 -1 0.53271 0.9759283 -1 -0.9759283 -0.973359 1 0.5657359 -0.973359 1 -0.973359 -0.9759283 -1 0.53271 -0.9759283 -1 -0.9759283 -1 -0.911789 -0.9574651 -1 -0.911789 0.5642305 1 -0.9030262 0.5836485 1 -0.9030262 -0.9687239 -0.9759283 -0.8996199 -0.9759283 -0.9759283 -0.8996199 0.53271 0.9759283 -0.8996199 0.53271 0.9759283 -0.8996199 -0.9759283 0.973359 1 0.5657359 0.973359 1 -0.973359 1 -1 1 1 -1 -1 0.9764392 0.9030262 0.5836485 0.9764392 0.9030262 -0.9687239 0.9764392 -0.9030262 0.5836485 0.9764392 -0.9030262 -0.9687239 1 1 -1 -1 0.911789 -0.9574651 1 1 1 -1 0.911789 0.5642305 0.973359 0.9055253 -0.973359 -0.973359 0.9055253 -0.973359 0.973359 0.9055253 0.5657359 -0.973359 0.9055253 0.5657359 -1 1 -1 -1 -1 -1 -1 -1 1 -1 1 1 -0.9773707 0.911789 -0.9574651 -0.9773707 -0.911789 -0.9574651 -0.9773707 -0.911789 0.5642305 -0.9773707 0.911789 0.5642305</float_array>
          <technique_common>
            <accessor source="#Cube-mesh-positions-array" count="40" stride="3">
              <param name="X" type="float"/>
              <param name="Y" type="float"/>
              <param name="Z" type="float"/>
            </accessor>
          </technique_common>
        </source>
        <source id="Cube-mesh-normals">
          <float_array id="Cube-mesh-normals-array" count="30">0 0 1 0 -1 0 0 0 -1 0 -1 -1.307e-7 0 -1 2.5372e-6 -1 0 0 1 0 0 0 1 0 -1 8.88095e-7 0 -1 -8.88095e-7 0</float_array>
          <technique_common>
            <accessor source="#Cube-mesh-normals-array" count="10" stride="3">
              <param name="X" type="float"/>
              <param name="Y" type="float"/>
              <param name="Z" type="float"/>
            </accessor>
          </technique_common>
        </source>
        <source id="Cube-mesh-map-0">
          <float_array id="Cube-mesh-map-0-array" count="456">0.875 0.5 0.625 0.75 0.625 0.5 0.378009 0.753009 0.378009 0.996991 0.378009 0.996991 0.3860263 0.2389736 0.6139736 0.2389736 0.6139736 0.2389736 0.375 0.5 0.125 0.75 0.125 0.5 0.6128783 0.7378784 0.6128782 0.5121217 0.6128782 0.5121217 0.6216699 0.4966699 0.6216699 0.2533301 0.6216699 0.2533301 0.621991 0.996991 0.375 1 0.378009 0.996991 0.621991 0.753009 0.375 0.75 0.625 0.75 0.621991 0.753009 0.625 1 0.621991 0.996991 0.378009 0.996991 0.375 0.75 0.378009 0.753009 0.621991 0.753009 0.378009 0.996991 0.378009 0.753009 0.621991 0.753009 0.378009 0.753009 0.378009 0.753009 0.621991 0.996991 0.621991 0.753009 0.621991 0.753009 0.378009 0.996991 0.621991 0.996991 0.621991 0.996991 0.6128782 0.5121217 0.375 0.5 0.625 0.5 0.6128783 0.7378784 0.375 0.75 0.3871217 0.7378782 0.6128782 0.5121217 0.625 0.75 0.6128783 0.7378784 0.3871217 0.7378782 0.375 0.5 0.3871217 0.5121217 0.6128782 0.5121217 0.3871217 0.7378782 0.3871217 0.5121217 0.6128782 0.5121217 0.3871217 0.5121217 0.3871217 0.5121217 0.3871217 0.5121217 0.3871217 0.7378782 0.3871217 0.7378782 0.3871217 0.7378782 0.6128783 0.7378784 0.6128783 0.7378784 0.3783301 0.4966699 0.375 0.25 0.3783301 0.2533301 0.6216699 0.4966699 0.375 0.5 0.3783301 0.4966699 0.6216699 0.2533301 0.375 0.25 0.625 0.25 0.6216699 0.2533301 0.625 0.5 0.6216699 0.4966699 0.6216699 0.2533301 0.3783301 0.4966699 0.3783301 0.2533301 0.3783301 0.4966699 0.6216699 0.4966699 0.6216699 0.4966699 0.6216699 0.2533301 0.3783301 0.2533301 0.3783301 0.2533301 0.3783301 0.2533301 0.3783301 0.4966699 0.3783301 0.4966699 0.3860263 0.2389736 0.375 0 0.3860263 0.01102638 0.6139736 0.01102638 0.375 0 0.625 0 0.6139736 0.2389736 0.375 0.25 0.3860263 0.2389736 0.6139736 0.01102638 0.625 0.25 0.6139736 0.2389736 0.6139736 0.01102638 0.3860263 0.2389736 0.3860263 0.01102638 0.3860263 0.01102638 0.3860263 0.2389736 0.3860263 0.2389736 0.6139736 0.2389736 0.6139736 0.01102638 0.6139736 0.01102638 0.6139736 0.01102638 0.3860263 0.01102638 0.3860263 0.01102638 0.875 0.5 0.875 0.75 0.625 0.75 0.378009 0.753009 0.378009 0.753009 0.378009 0.996991 0.3860263 0.2389736 0.3860263 0.2389736 0.6139736 0.2389736 0.375 0.5 0.375 0.75 0.125 0.75 0.6128783 0.7378784 0.6128783 0.7378784 0.6128782 0.5121217 0.6216699 0.4966699 0.6216699 0.4966699 0.6216699 0.2533301 0.621991 0.996991 0.625 1 0.375 1 0.621991 0.753009 0.378009 0.753009 0.375 0.75 0.621991 0.753009 0.625 0.75 0.625 1 0.378009 0.996991 0.375 1 0.375 0.75 0.621991 0.753009 0.621991 0.996991 0.378009 0.996991 0.621991 0.753009 0.621991 0.753009 0.378009 0.753009 0.621991 0.996991 0.621991 0.996991 0.621991 0.753009 0.378009 0.996991 0.378009 0.996991 0.621991 0.996991 0.6128782 0.5121217 0.3871217 0.5121217 0.375 0.5 0.6128783 0.7378784 0.625 0.75 0.375 0.75 0.6128782 0.5121217 0.625 0.5 0.625 0.75 0.3871217 0.7378782 0.375 0.75 0.375 0.5 0.6128782 0.5121217 0.6128783 0.7378784 0.3871217 0.7378782 0.6128782 0.5121217 0.6128782 0.5121217 0.3871217 0.5121217 0.3871217 0.5121217 0.3871217 0.5121217 0.3871217 0.7378782 0.3871217 0.7378782 0.3871217 0.7378782 0.6128783 0.7378784 0.3783301 0.4966699 0.375 0.5 0.375 0.25 0.6216699 0.4966699 0.625 0.5 0.375 0.5 0.6216699 0.2533301 0.3783301 0.2533301 0.375 0.25 0.6216699 0.2533301 0.625 0.25 0.625 0.5 0.6216699 0.2533301 0.6216699 0.4966699 0.3783301 0.4966699 0.3783301 0.4966699 0.3783301 0.4966699 0.6216699 0.4966699 0.6216699 0.2533301 0.6216699 0.2533301 0.3783301 0.2533301 0.3783301 0.2533301 0.3783301 0.2533301 0.3783301 0.4966699 0.3860263 0.2389736 0.375 0.25 0.375 0 0.6139736 0.01102638 0.3860263 0.01102638 0.375 0 0.6139736 0.2389736 0.625 0.25 0.375 0.25 0.6139736 0.01102638 0.625 0 0.625 0.25 0.6139736 0.01102638 0.6139736 0.2389736 0.3860263 0.2389736 0.3860263 0.01102638 0.3860263 0.01102638 0.3860263 0.2389736 0.6139736 0.2389736 0.6139736 0.2389736 0.6139736 0.01102638 0.6139736 0.01102638 0.6139736 0.01102638 0.3860263 0.01102638</float_array>
          <technique_common>
            <accessor source="#Cube-mesh-map-0-array" count="228" stride="2">
              <param name="S" type="float"/>
              <param name="T" type="float"/>
            </accessor>
          </technique_common>
        </source>
        <vertices id="Cube-mesh-vertices">
          <input semantic="POSITION" source="#Cube-mesh-positions"/>
        </vertices>
        <triangles material="base-material" count="52">
          <input semantic="VERTEX" source="#Cube-mesh-vertices" offset="0"/>
          <input semantic="NORMAL" source="#Cube-mesh-normals" offset="1"/>
          <input semantic="TEXCOORD" source="#Cube-mesh-map-0" offset="2" set="0"/>
          <p>35 0 0 18 0 1 26 0 2 3 0 3 12 0 4 7 0 5 25 1 6 39 1 7 27 1 8 24 2 9 33 2 10 32 2 11 10 2 12 20 2 13 0 2 14 16 2 15 31 2 16 4 2 17 7 4 27 19 4 28 3 4 29 14 1 30 12 1 31 15 1 32 2 5 33 15 5 34 3 5 35 6 2 36 14 2 37 2 2 38 7 6 39 13 6 40 6 6 41 11 6 51 24 6 52 1 6 53 20 6 54 23 6 55 21 6 56 0 1 57 21 1 58 1 1 59 1 0 60 23 0 61 11 0 62 11 7 63 22 7 64 10 7 65 17 7 66 32 7 67 5 7 68 31 7 78 28 7 79 29 7 80 17 5 81 30 5 82 16 5 83 4 6 84 29 6 85 5 6 86 5 0 87 28 0 88 17 0 89 25 5 90 33 5 91 8 5 92 38 5 102 36 5 103 37 5 104 8 0 105 36 0 106 25 0 107 27 2 108 38 2 109 9 2 110 9 7 111 37 7 112 8 7 113 35 0 114 34 0 115 18 0 116 3 0 117 15 0 118 12 0 119 25 1 120 36 1 121 39 1 122 24 2 123 19 2 124 33 2 125 10 2 126 22 2 127 20 2 128 16 2 129 30 2 130 31 2 131 7 1 141 33 1 142 19 1 143 14 1 144 13 1 145 12 1 146 2 5 147 14 5 148 15 5 149 6 2 150 13 2 151 14 2 152 7 6 153 12 6 154 13 6 155 11 6 165 19 6 166 24 6 167 20 6 168 22 6 169 23 6 170 0 1 171 20 1 172 21 1 173 1 0 174 21 0 175 23 0 176 11 7 177 23 7 178 22 7 179 17 7 180 24 7 181 32 7 182 31 7 192 30 7 193 28 7 194 17 5 195 28 5 196 30 5 197 4 6 198 31 6 199 29 6 200 5 0 201 29 0 202 28 0 203 25 5 204 32 5 205 33 5 206 38 5 216 39 5 217 36 5 218 8 0 219 37 0 220 36 0 221 27 2 222 39 2 223 38 2 224 9 7 225 38 7 226 37 7 227</p>
        </triangles>
        <triangles material="sides-material" count="24">
          <input semantic="VERTEX" source="#Cube-mesh-vertices" offset="0"/>
          <input semantic="NORMAL" source="#Cube-mesh-normals" offset="1"/>
          <input semantic="TEXCOORD" source="#Cube-mesh-map-0" offset="2" set="0"/>
          <p>6 1 18 33 1 19 7 1 20 2 1 21 19 1 22 18 1 23 2 3 24 34 3 25 6 3 26 0 6 42 24 6 43 26 6 44 10 6 45 19 6 46 11 6 47 0 6 48 18 6 49 10 6 50 16 7 69 24 7 70 17 7 71 4 7 72 32 7 73 35 7 74 4 7 75 26 7 76 16 7 77 9 5 93 33 5 94 34 5 95 27 8 96 32 8 97 25 8 98 9 5 99 35 5 100 27 5 101 6 1 132 34 1 133 33 1 134 2 1 135 3 1 136 19 1 137 2 1 138 18 1 139 34 1 140 0 6 156 1 6 157 24 6 158 10 6 159 18 6 160 19 6 161 0 6 162 26 6 163 18 6 164 16 7 183 26 7 184 24 7 185 4 7 186 5 7 187 32 7 188 4 7 189 35 7 190 26 7 191 9 9 207 8 9 208 33 9 209 27 5 210 35 5 211 32 5 212 9 5 213 34 5 214 35 5 215</p>
        </triangles>
      </mesh>
    </geometry>
  </library_geometries>
  <library_visual_scenes>
    <visual_scene id="Scene" name="Scene">
      <node id="Cube_007" name="Cube.007" type="NODE">
        <matrix sid="transform">0.025 0 0 2 0 0.25 0 0.25 0 0 0.95 0.15 0 0 0 1</matrix>
        <instance_geometry url="#Cube_010-mesh" name="Cube.007">
          <bind_material>
            <technique_common>
              <instance_material symbol="base_005-material" target="#base_005-material">
                <bind_vertex_input semantic="UVMap" input_semantic="TEXCOORD" input_set="0"/>
              </instance_material>
            </technique_common>
          </bind_material>
        </instance_geometry>
      </node>
      <node id="Cube_006" name="Cube.006" type="NODE">
        <matrix sid="transform">2.025 0 0 0 0 0.025 0 0.025 0 0 0.95 0.15 0 0 0 1</matrix>
        <instance_geometry url="#Cube_009-mesh" name="Cube.006">
          <bind_material>
            <technique_common>
              <instance_material symbol="base_004-material" target="#base_004-material">
                <bind_vertex_input semantic="UVMap" input_semantic="TEXCOORD" input_set="0"/>
              </instance_material>
            </technique_common>
          </bind_material>
        </instance_geometry>
      </node>
      <node id="Cube_005" name="Cube.005" type="NODE">
        <matrix sid="transform">2.025 0 0 0 0 0.25 0 0.25 0 0 0.015 0.8 0 0 0 1</matrix>
        <instance_geometry url="#Cube_008-mesh" name="Cube.005">
          <bind_material>
            <technique_common>
              <instance_material symbol="base_003-material" target="#base_003-material">
                <bind_vertex_input semantic="UVMap" input_semantic="TEXCOORD" input_set="0"/>
              </instance_material>
              <instance_material symbol="sides_003-material" target="#sides_003-material">
                <bind_vertex_input semantic="UVMap" input_semantic="TEXCOORD" input_set="0"/>
              </instance_material>
            </technique_common>
          </bind_material>
        </instance_geometry>
      </node>
      <node id="Cube_004" name="Cube.004" type="NODE">
        <matrix sid="transform">2.025 0 0 0 0 0.25 0 0.25 0 0 0.015 0.4 0 0 0 1</matrix>
        <instance_geometry url="#Cube_007-mesh" name="Cube.004">
          <bind_material>
            <technique_common>
              <instance_material symbol="base_002-material" target="#base_002-material">
                <bind_vertex_input semantic="UVMap" input_semantic="TEXCOORD" input_set="0"/>
              </instance_material>
              <instance_material symbol="sides_002-material" target="#sides_002-material">
                <bind_vertex_input semantic="UVMap" input_semantic="TEXCOORD" input_set="0"/>
              </instance_material>
            </technique_common>
          </bind_material>
        </instance_geometry>
      </node>
      <node id="Cube_003" name="Cube.003" type="NODE">
        <matrix sid="transform">2.025 0 0 0 0 0.25 0 0.25 0 0 0.015 0 0 0 0 1</matrix>
        <instance_geometry url="#Cube_006-mesh" name="Cube.003">
          <bind_material>
            <technique_common>
              <instance_material symbol="base_001-material" target="#base_001-material">
                <bind_vertex_input semantic="UVMap" input_semantic="TEXCOORD" input_set="0"/>
              </instance_material>
              <instance_material symbol="sides_001-material" target="#sides_001-material">
                <bind_vertex_input semantic="UVMap" input_semantic="TEXCOORD" input_set="0"/>
              </instance_material>
            </technique_common>
          </bind_material>
        </instance_geometry>
      </node>
      <node id="Cube_002" name="Cube.002" type="NODE">
        <matrix sid="transform">2.025 0 0 0 0 0.25 0 0.25 0 0 0.015 -0.4 0 0 0 1</matrix>
        <instance_geometry url="#Cube_005-mesh" name="Cube.002">
          <bind_material>
            <technique_common>
              <instance_material symbol="base-material" target="#base-material">
                <bind_vertex_input semantic="UVMap" input_semantic="TEXCOORD" input_set="0"/>
              </instance_material>
              <instance_material symbol="sides-material" target="#sides-material">
                <bind_vertex_input semantic="UVMap" input_semantic="TEXCOORD" input_set="0"/>
              </instance_material>
            </technique_common>
          </bind_material>
        </instance_geometry>
      </node>
      <node id="Cube_001" name="Cube.001" type="NODE">
        <matrix sid="transform">0.025 0 0 -2 0 0.25 0 0.25 0 0 0.95 0.15 0 0 0 1</matrix>
        <instance_geometry url="#Cube_004-mesh" name="Cube.001">
          <bind_material>
            <technique_common>
              <instance_material symbol="base-material" target="#base-material">
                <bind_vertex_input semantic="UVMap" input_semantic="TEXCOORD" input_set="0"/>
              </instance_material>
            </technique_common>
          </bind_material>
        </instance_geometry>
      </node>
      <node id="Camera" name="Camera" type="NODE">
        <matrix sid="transform">0.6859207 -0.3240135 0.6515582 7.358891 0.7276763 0.3054208 -0.6141704 -6.925791 0 0.8953956 0.4452714 4.958309 0 0 0 1</matrix>
        <instance_camera url="#Camera-camera"/>
      </node>
      <node id="Light" name="Light" type="NODE">
        <matrix sid="transform">-0.2908646 -0.7711008 0.5663932 4.076245 0.9551712 -0.1998834 0.2183912 1.005454 -0.05518906 0.6045247 0.7946723 5.903862 0 0 0 1</matrix>
        <instance_light url="#Light-light"/>
      </node>
      <node id="Cube" name="Cube" type="NODE">
        <matrix sid="transform">2.025 0 0 0 0 0.25 0 0.25 0 0 0.1 -0.9 0 0 0 1</matrix>
        <instance_geometry url="#Cube-mesh" name="Cube">
          <bind_material>
            <technique_common>
              <instance_material symbol="base-material" target="#base-material">
                <bind_vertex_input semantic="UVMap" input_semantic="TEXCOORD" input_set="0"/>
              </instance_material>
              <instance_material symbol="sides-material" target="#sides-material">
                <bind_vertex_input semantic="UVMap" input_semantic="TEXCOORD" input_set="0"/>
              </instance_material>
            </technique_common>
          </bind_material>
        </instance_geometry>
      </node>
    </visual_scene>
  </library_visual_scenes>
  <scene>
    <instance_visual_scene url="#Scene"/>
  </scene>
</COLLADA>